\relax 
\providecommand \oddpage@label [2]{}
\@writefile{toc}{\contentsline {chapter}{\numberline {1}File Index}{1}}
\@writefile{lof}{\addvspace {10\p@ }}
\@writefile{lot}{\addvspace {10\p@ }}
\@writefile{toc}{\contentsline {section}{\numberline {1.1}File List}{1}}
\@writefile{toc}{\contentsline {chapter}{\numberline {2}File Documentation}{3}}
\@writefile{lof}{\addvspace {10\p@ }}
\@writefile{lot}{\addvspace {10\p@ }}
\@writefile{toc}{\contentsline {section}{\numberline {2.1}config.\discretionary {\unhbox \voidb@x \hbox {\relax \fontsize  {7}{8}\selectfont  $\leftarrow \joinrel  \rhook $}}{}{}c File Reference}{3}}
\newlabel{config_8c}{{2.1}{3}}
\newlabel{config_8c_a4bcc6add035d45eb0b9034f1b30dea15}{{2.1}{3}}
\newlabel{config_8c_a04e2ce1b59a8fa1466621c8feb8ea085}{{2.1}{4}}
\newlabel{config_8c_a3e202b201e6255d975cd6d3aff1f5a4d}{{2.1}{4}}
\newlabel{config_8c_ae1e1dde676c120fa6d10f3bb2c14059e}{{2.1}{4}}
\newlabel{config_8c_ab04e2d55ea4a544f3575812582af7b51}{{2.1}{4}}
\newlabel{config_8c_a364af9cd7dd0e8cc7e2ce8c99cd804b9}{{2.1}{4}}
\@writefile{toc}{\contentsline {subsection}{\numberline {2.1.1}Detailed Description}{4}}
\@writefile{toc}{\contentsline {subsection}{\numberline {2.1.2}Function Documentation}{5}}
\newlabel{config_8c_a0b8421d3e46951bb96714f1377ed7bd0}{{2.1.2}{5}}
\@writefile{toc}{\contentsline {subsubsection}{\numberline {2.1.2.1}config()}{5}}
\newlabel{config_8c_a2ff9c5721c64884630036c6768345f30}{{2.1.2.1}{5}}
\@writefile{toc}{\contentsline {subsubsection}{\numberline {2.1.2.2}config\discretionary {\unhbox \voidb@x \hbox {\relax \fontsize  {7}{8}\selectfont  $\leftarrow \joinrel  \rhook $}}{}{}\_\discretionary {\unhbox \voidb@x \hbox {\relax \fontsize  {7}{8}\selectfont  $\leftarrow \joinrel  \rhook $}}{}{}bottom\discretionary {\unhbox \voidb@x \hbox {\relax \fontsize  {7}{8}\selectfont  $\leftarrow \joinrel  \rhook $}}{}{}\_\discretionary {\unhbox \voidb@x \hbox {\relax \fontsize  {7}{8}\selectfont  $\leftarrow \joinrel  \rhook $}}{}{}bound()}{6}}
\newlabel{config_8c_a1db1aa17fc561b44d3b86ad7a3dfc25b}{{2.1.2.2}{6}}
\@writefile{toc}{\contentsline {subsubsection}{\numberline {2.1.2.3}config\discretionary {\unhbox \voidb@x \hbox {\relax \fontsize  {7}{8}\selectfont  $\leftarrow \joinrel  \rhook $}}{}{}\_\discretionary {\unhbox \voidb@x \hbox {\relax \fontsize  {7}{8}\selectfont  $\leftarrow \joinrel  \rhook $}}{}{}frequency()}{6}}
\newlabel{config_8c_a80734e731a47a425a46e12c4216d3bee}{{2.1.2.3}{7}}
\@writefile{toc}{\contentsline {subsubsection}{\numberline {2.1.2.4}config\discretionary {\unhbox \voidb@x \hbox {\relax \fontsize  {7}{8}\selectfont  $\leftarrow \joinrel  \rhook $}}{}{}\_\discretionary {\unhbox \voidb@x \hbox {\relax \fontsize  {7}{8}\selectfont  $\leftarrow \joinrel  \rhook $}}{}{}interface()}{7}}
\newlabel{config_8c_a087357991068e9029b922291940552ba}{{2.1.2.4}{7}}
\@writefile{toc}{\contentsline {subsubsection}{\numberline {2.1.2.5}config\discretionary {\unhbox \voidb@x \hbox {\relax \fontsize  {7}{8}\selectfont  $\leftarrow \joinrel  \rhook $}}{}{}\_\discretionary {\unhbox \voidb@x \hbox {\relax \fontsize  {7}{8}\selectfont  $\leftarrow \joinrel  \rhook $}}{}{}left\discretionary {\unhbox \voidb@x \hbox {\relax \fontsize  {7}{8}\selectfont  $\leftarrow \joinrel  \rhook $}}{}{}\_\discretionary {\unhbox \voidb@x \hbox {\relax \fontsize  {7}{8}\selectfont  $\leftarrow \joinrel  \rhook $}}{}{}bound()}{8}}
\newlabel{config_8c_a34ca3c84ed200867a6b704a806ce301c}{{2.1.2.5}{8}}
\@writefile{toc}{\contentsline {subsubsection}{\numberline {2.1.2.6}config\discretionary {\unhbox \voidb@x \hbox {\relax \fontsize  {7}{8}\selectfont  $\leftarrow \joinrel  \rhook $}}{}{}\_\discretionary {\unhbox \voidb@x \hbox {\relax \fontsize  {7}{8}\selectfont  $\leftarrow \joinrel  \rhook $}}{}{}ready()}{8}}
\newlabel{config_8c_a8db4008f5ef518c217a37f1c841996d1}{{2.1.2.6}{8}}
\@writefile{toc}{\contentsline {subsubsection}{\numberline {2.1.2.7}config\discretionary {\unhbox \voidb@x \hbox {\relax \fontsize  {7}{8}\selectfont  $\leftarrow \joinrel  \rhook $}}{}{}\_\discretionary {\unhbox \voidb@x \hbox {\relax \fontsize  {7}{8}\selectfont  $\leftarrow \joinrel  \rhook $}}{}{}resolution()}{9}}
\newlabel{config_8c_a231c16dc4df3dc7627657180e3b4e528}{{2.1.2.7}{9}}
\@writefile{toc}{\contentsline {subsubsection}{\numberline {2.1.2.8}config\discretionary {\unhbox \voidb@x \hbox {\relax \fontsize  {7}{8}\selectfont  $\leftarrow \joinrel  \rhook $}}{}{}\_\discretionary {\unhbox \voidb@x \hbox {\relax \fontsize  {7}{8}\selectfont  $\leftarrow \joinrel  \rhook $}}{}{}right\discretionary {\unhbox \voidb@x \hbox {\relax \fontsize  {7}{8}\selectfont  $\leftarrow \joinrel  \rhook $}}{}{}\_\discretionary {\unhbox \voidb@x \hbox {\relax \fontsize  {7}{8}\selectfont  $\leftarrow \joinrel  \rhook $}}{}{}bound()}{9}}
\newlabel{config_8c_a59ddc0e706435f05e172c2401bfa17bc}{{2.1.2.8}{10}}
\@writefile{toc}{\contentsline {subsubsection}{\numberline {2.1.2.9}config\discretionary {\unhbox \voidb@x \hbox {\relax \fontsize  {7}{8}\selectfont  $\leftarrow \joinrel  \rhook $}}{}{}\_\discretionary {\unhbox \voidb@x \hbox {\relax \fontsize  {7}{8}\selectfont  $\leftarrow \joinrel  \rhook $}}{}{}samples()}{10}}
\newlabel{config_8c_a6a9bd1616ef28a185ce72415a71e152e}{{2.1.2.9}{10}}
\@writefile{toc}{\contentsline {subsubsection}{\numberline {2.1.2.10}config\discretionary {\unhbox \voidb@x \hbox {\relax \fontsize  {7}{8}\selectfont  $\leftarrow \joinrel  \rhook $}}{}{}\_\discretionary {\unhbox \voidb@x \hbox {\relax \fontsize  {7}{8}\selectfont  $\leftarrow \joinrel  \rhook $}}{}{}scan\discretionary {\unhbox \voidb@x \hbox {\relax \fontsize  {7}{8}\selectfont  $\leftarrow \joinrel  \rhook $}}{}{}\_\discretionary {\unhbox \voidb@x \hbox {\relax \fontsize  {7}{8}\selectfont  $\leftarrow \joinrel  \rhook $}}{}{}type()}{11}}
\newlabel{config_8c_a24db5ff064cfca8d7b450348dd5a14c2}{{2.1.2.10}{11}}
\@writefile{toc}{\contentsline {subsubsection}{\numberline {2.1.2.11}config\discretionary {\unhbox \voidb@x \hbox {\relax \fontsize  {7}{8}\selectfont  $\leftarrow \joinrel  \rhook $}}{}{}\_\discretionary {\unhbox \voidb@x \hbox {\relax \fontsize  {7}{8}\selectfont  $\leftarrow \joinrel  \rhook $}}{}{}top\discretionary {\unhbox \voidb@x \hbox {\relax \fontsize  {7}{8}\selectfont  $\leftarrow \joinrel  \rhook $}}{}{}\_\discretionary {\unhbox \voidb@x \hbox {\relax \fontsize  {7}{8}\selectfont  $\leftarrow \joinrel  \rhook $}}{}{}bound()}{11}}
\newlabel{config_8c_a49f83090e2d126a462b05c3b2da63ecc}{{2.1.2.11}{12}}
\@writefile{toc}{\contentsline {subsubsection}{\numberline {2.1.2.12}get\discretionary {\unhbox \voidb@x \hbox {\relax \fontsize  {7}{8}\selectfont  $\leftarrow \joinrel  \rhook $}}{}{}\_\discretionary {\unhbox \voidb@x \hbox {\relax \fontsize  {7}{8}\selectfont  $\leftarrow \joinrel  \rhook $}}{}{}scan\discretionary {\unhbox \voidb@x \hbox {\relax \fontsize  {7}{8}\selectfont  $\leftarrow \joinrel  \rhook $}}{}{}\_\discretionary {\unhbox \voidb@x \hbox {\relax \fontsize  {7}{8}\selectfont  $\leftarrow \joinrel  \rhook $}}{}{}type()}{12}}
\newlabel{config_8c_af70831f77e53f25f784124a37f7e7c5e}{{2.1.2.12}{12}}
\@writefile{toc}{\contentsline {subsubsection}{\numberline {2.1.2.13}introduction()}{12}}
\newlabel{config_8c_a68309f37daf9832c778ca9b1df82ee7c}{{2.1.2.13}{12}}
\@writefile{toc}{\contentsline {subsubsection}{\numberline {2.1.2.14}set\discretionary {\unhbox \voidb@x \hbox {\relax \fontsize  {7}{8}\selectfont  $\leftarrow \joinrel  \rhook $}}{}{}\_\discretionary {\unhbox \voidb@x \hbox {\relax \fontsize  {7}{8}\selectfont  $\leftarrow \joinrel  \rhook $}}{}{}bottom\discretionary {\unhbox \voidb@x \hbox {\relax \fontsize  {7}{8}\selectfont  $\leftarrow \joinrel  \rhook $}}{}{}\_\discretionary {\unhbox \voidb@x \hbox {\relax \fontsize  {7}{8}\selectfont  $\leftarrow \joinrel  \rhook $}}{}{}bound()}{12}}
\gdef \LT@i {\LT@entry 
    {3}{17.8039pt}\LT@entry 
    {3}{272.10754pt}}
\gdef \LT@ii {\LT@entry 
    {3}{14.79794pt}\LT@entry 
    {3}{279.31693pt}}
\gdef \LT@iii {\LT@entry 
    {3}{14.79794pt}\LT@entry 
    {3}{236.82823pt}}
\newlabel{config_8c_a96b39ba8299b786bbdf4fe7a6f44b055}{{2.1.2.14}{13}}
\@writefile{toc}{\contentsline {subsubsection}{\numberline {2.1.2.15}set\discretionary {\unhbox \voidb@x \hbox {\relax \fontsize  {7}{8}\selectfont  $\leftarrow \joinrel  \rhook $}}{}{}\_\discretionary {\unhbox \voidb@x \hbox {\relax \fontsize  {7}{8}\selectfont  $\leftarrow \joinrel  \rhook $}}{}{}laser\discretionary {\unhbox \voidb@x \hbox {\relax \fontsize  {7}{8}\selectfont  $\leftarrow \joinrel  \rhook $}}{}{}\_\discretionary {\unhbox \voidb@x \hbox {\relax \fontsize  {7}{8}\selectfont  $\leftarrow \joinrel  \rhook $}}{}{}freq\discretionary {\unhbox \voidb@x \hbox {\relax \fontsize  {7}{8}\selectfont  $\leftarrow \joinrel  \rhook $}}{}{}\_\discretionary {\unhbox \voidb@x \hbox {\relax \fontsize  {7}{8}\selectfont  $\leftarrow \joinrel  \rhook $}}{}{}divisor()}{13}}
\newlabel{config_8c_a8372dca8906e8a6c09b528e50676c68e}{{2.1.2.15}{13}}
\@writefile{toc}{\contentsline {subsubsection}{\numberline {2.1.2.16}set\discretionary {\unhbox \voidb@x \hbox {\relax \fontsize  {7}{8}\selectfont  $\leftarrow \joinrel  \rhook $}}{}{}\_\discretionary {\unhbox \voidb@x \hbox {\relax \fontsize  {7}{8}\selectfont  $\leftarrow \joinrel  \rhook $}}{}{}laser\discretionary {\unhbox \voidb@x \hbox {\relax \fontsize  {7}{8}\selectfont  $\leftarrow \joinrel  \rhook $}}{}{}\_\discretionary {\unhbox \voidb@x \hbox {\relax \fontsize  {7}{8}\selectfont  $\leftarrow \joinrel  \rhook $}}{}{}resolution()}{13}}
\newlabel{config_8c_a3ad73157a7045dc3e4e4c34fae1eb1ee}{{2.1.2.16}{13}}
\gdef \LT@iv {\LT@entry 
    {3}{14.79794pt}\LT@entry 
    {3}{198.84889pt}}
\gdef \LT@v {\LT@entry 
    {3}{17.8039pt}\LT@entry 
    {3}{282.34015pt}}
\gdef \LT@vi {\LT@entry 
    {3}{17.8039pt}\LT@entry 
    {3}{287.974pt}}
\@writefile{toc}{\contentsline {subsubsection}{\numberline {2.1.2.17}set\discretionary {\unhbox \voidb@x \hbox {\relax \fontsize  {7}{8}\selectfont  $\leftarrow \joinrel  \rhook $}}{}{}\_\discretionary {\unhbox \voidb@x \hbox {\relax \fontsize  {7}{8}\selectfont  $\leftarrow \joinrel  \rhook $}}{}{}laser\discretionary {\unhbox \voidb@x \hbox {\relax \fontsize  {7}{8}\selectfont  $\leftarrow \joinrel  \rhook $}}{}{}\_\discretionary {\unhbox \voidb@x \hbox {\relax \fontsize  {7}{8}\selectfont  $\leftarrow \joinrel  \rhook $}}{}{}sample\discretionary {\unhbox \voidb@x \hbox {\relax \fontsize  {7}{8}\selectfont  $\leftarrow \joinrel  \rhook $}}{}{}\_\discretionary {\unhbox \voidb@x \hbox {\relax \fontsize  {7}{8}\selectfont  $\leftarrow \joinrel  \rhook $}}{}{}num()}{14}}
\newlabel{config_8c_a134f42f04f527a12f99fa370ac14f2d5}{{2.1.2.17}{14}}
\@writefile{toc}{\contentsline {subsubsection}{\numberline {2.1.2.18}set\discretionary {\unhbox \voidb@x \hbox {\relax \fontsize  {7}{8}\selectfont  $\leftarrow \joinrel  \rhook $}}{}{}\_\discretionary {\unhbox \voidb@x \hbox {\relax \fontsize  {7}{8}\selectfont  $\leftarrow \joinrel  \rhook $}}{}{}left\discretionary {\unhbox \voidb@x \hbox {\relax \fontsize  {7}{8}\selectfont  $\leftarrow \joinrel  \rhook $}}{}{}\_\discretionary {\unhbox \voidb@x \hbox {\relax \fontsize  {7}{8}\selectfont  $\leftarrow \joinrel  \rhook $}}{}{}bound()}{14}}
\newlabel{config_8c_ac05937038d14e85fe732e51f4fb49e34}{{2.1.2.18}{14}}
\@writefile{toc}{\contentsline {subsubsection}{\numberline {2.1.2.19}set\discretionary {\unhbox \voidb@x \hbox {\relax \fontsize  {7}{8}\selectfont  $\leftarrow \joinrel  \rhook $}}{}{}\_\discretionary {\unhbox \voidb@x \hbox {\relax \fontsize  {7}{8}\selectfont  $\leftarrow \joinrel  \rhook $}}{}{}right\discretionary {\unhbox \voidb@x \hbox {\relax \fontsize  {7}{8}\selectfont  $\leftarrow \joinrel  \rhook $}}{}{}\_\discretionary {\unhbox \voidb@x \hbox {\relax \fontsize  {7}{8}\selectfont  $\leftarrow \joinrel  \rhook $}}{}{}bound()}{14}}
\gdef \LT@vii {\LT@entry 
    {3}{29.80966pt}\LT@entry 
    {3}{226.94704pt}}
\gdef \LT@viii {\LT@entry 
    {3}{17.8039pt}\LT@entry 
    {3}{273.84439pt}}
\newlabel{config_8c_a3db51d83c1a9daffd1c300ec0f22e00a}{{2.1.2.19}{15}}
\@writefile{toc}{\contentsline {subsubsection}{\numberline {2.1.2.20}set\discretionary {\unhbox \voidb@x \hbox {\relax \fontsize  {7}{8}\selectfont  $\leftarrow \joinrel  \rhook $}}{}{}\_\discretionary {\unhbox \voidb@x \hbox {\relax \fontsize  {7}{8}\selectfont  $\leftarrow \joinrel  \rhook $}}{}{}scan\discretionary {\unhbox \voidb@x \hbox {\relax \fontsize  {7}{8}\selectfont  $\leftarrow \joinrel  \rhook $}}{}{}\_\discretionary {\unhbox \voidb@x \hbox {\relax \fontsize  {7}{8}\selectfont  $\leftarrow \joinrel  \rhook $}}{}{}type()}{15}}
\newlabel{config_8c_a1b8e515a65fc9a5d6649f3a4ccd878b7}{{2.1.2.20}{15}}
\@writefile{toc}{\contentsline {subsubsection}{\numberline {2.1.2.21}set\discretionary {\unhbox \voidb@x \hbox {\relax \fontsize  {7}{8}\selectfont  $\leftarrow \joinrel  \rhook $}}{}{}\_\discretionary {\unhbox \voidb@x \hbox {\relax \fontsize  {7}{8}\selectfont  $\leftarrow \joinrel  \rhook $}}{}{}top\discretionary {\unhbox \voidb@x \hbox {\relax \fontsize  {7}{8}\selectfont  $\leftarrow \joinrel  \rhook $}}{}{}\_\discretionary {\unhbox \voidb@x \hbox {\relax \fontsize  {7}{8}\selectfont  $\leftarrow \joinrel  \rhook $}}{}{}bound()}{15}}
\@writefile{toc}{\contentsline {section}{\numberline {2.2}iic.\discretionary {\unhbox \voidb@x \hbox {\relax \fontsize  {7}{8}\selectfont  $\leftarrow \joinrel  \rhook $}}{}{}c File Reference}{16}}
\newlabel{iic_8c}{{2.2}{16}}
\newlabel{iic_8c_aba7bc1797add20fe3efdf37ced1182c5}{{2.2}{16}}
\newlabel{iic_8c_a1f1825b69244eb3ad2c7165ddc99c956}{{2.2}{16}}
\newlabel{iic_8c_a0c29456f10522dd9af834d8c033bb05f}{{2.2}{16}}
\newlabel{iic_8c_af73580309b16a2db986eacb3a9f31b9e}{{2.2}{16}}
\newlabel{iic_8c_a2f69682037630ba4fb04485fa0d90808}{{2.2}{16}}
\newlabel{iic_8c_a160d6216bdcf43132b4cf796ab20af85}{{2.2}{16}}
\newlabel{iic_8c_ad1915d1232d1fcdcda55c7f0473b3ca9}{{2.2}{16}}
\newlabel{iic_8c_af9fde1d0a4120fed72c567166053e555}{{2.2}{16}}
\newlabel{iic_8c_a9cba87dae264bd44e8b56e1356691665}{{2.2}{16}}
\newlabel{iic_8c_a128f01f8e091c329f2d11b4b46fc30ed}{{2.2}{16}}
\newlabel{iic_8c_aa2260adf9b86efd7ff763068d411e3fb}{{2.2}{16}}
\newlabel{iic_8c_adcaa421ef83eb736dd5d3f43bc67e778}{{2.2}{16}}
\newlabel{iic_8c_a117c6e0a8f04e3d7807f78cb7287268b}{{2.2}{16}}
\newlabel{iic_8c_af979eb28abe24c1f9e9ffc5c40955e2f}{{2.2}{16}}
\newlabel{iic_8c_ac30797fab25b15edc8b98d7bc9356830}{{2.2}{16}}
\newlabel{iic_8c_a8599d964e44cac8f604ae4e16c432c5d}{{2.2}{16}}
\newlabel{iic_8c_a10143cffd96158c149014079154ac0f6}{{2.2}{16}}
\newlabel{iic_8c_a28ee399fde38c65d685f06ba75c8669e}{{2.2}{16}}
\newlabel{iic_8c_ab00be629446398b757660a4f40efdfd2}{{2.2}{16}}
\newlabel{iic_8c_a379247efc435b636e486ad8ce0375e76}{{2.2}{16}}
\newlabel{iic_8c_a6094d8617d69715d32d500437ccf64ef}{{2.2}{16}}
\newlabel{iic_8c_a256921dc3326d93950f72d0fb45c6a96}{{2.2}{16}}
\@writefile{toc}{\contentsline {subsection}{\numberline {2.2.1}Detailed Description}{16}}
\@writefile{toc}{\contentsline {section}{\numberline {2.3}iic\discretionary {\unhbox \voidb@x \hbox {\relax \fontsize  {7}{8}\selectfont  $\leftarrow \joinrel  \rhook $}}{}{}\_\discretionary {\unhbox \voidb@x \hbox {\relax \fontsize  {7}{8}\selectfont  $\leftarrow \joinrel  \rhook $}}{}{}controller.\discretionary {\unhbox \voidb@x \hbox {\relax \fontsize  {7}{8}\selectfont  $\leftarrow \joinrel  \rhook $}}{}{}c File Reference}{17}}
\newlabel{iic__controller_8c}{{2.3}{17}}
\newlabel{iic__controller_8c_aac44679342ee111e2c333a55142c4943}{{2.3}{17}}
\newlabel{iic__controller_8c_a50603a080d5b1d203d361ed3d1daf84b}{{2.3}{17}}
\newlabel{iic__controller_8c_a60e197314137d00577af9d29594e7c58}{{2.3}{17}}
\newlabel{iic__controller_8c_af59dedc0ceee4d389b7797e67006f82f}{{2.3}{17}}
\newlabel{iic__controller_8c_a4394320be6884ae20a28233925555390}{{2.3}{17}}
\newlabel{iic__controller_8c_a2d93ea48e89b904e6a095a10fdae25ea}{{2.3}{17}}
\newlabel{iic__controller_8c_a20f887795d533752ed639f6a6ac4bb82}{{2.3}{17}}
\newlabel{iic__controller_8c_a4458b03c85914660dc3e40439a0ed928}{{2.3}{17}}
\newlabel{iic__controller_8c_a91a537907b8a354d5dd86215f39b8109}{{2.3}{17}}
\newlabel{iic__controller_8c_a03890ef37ad4f2f1a80abe9096905310}{{2.3}{17}}
\newlabel{iic__controller_8c_a96ff801c261c9dee2c1a30e0b907577b}{{2.3}{17}}
\newlabel{iic__controller_8c_aee4f07c21d60bc855371dbf2752020a3}{{2.3}{17}}
\newlabel{iic__controller_8c_a28b6ca151a7b6fcd0a82bd79d7085822}{{2.3}{17}}
\newlabel{iic__controller_8c_ac211f8100b049b721d75b4c7b8939260}{{2.3}{17}}
\newlabel{iic__controller_8c_a96df7f5d6e3950f50e0633857b62a5c6}{{2.3}{17}}
\newlabel{iic__controller_8c_a6ccd461bcd36df74d667a0acf544dfcd}{{2.3}{17}}
\newlabel{iic__controller_8c_af7682de5c3b5d2c6a8e603ac8cd0574b}{{2.3}{17}}
\newlabel{iic__controller_8c_abeb0a1c5e9b65a022a8010a456dd4145}{{2.3}{17}}
\newlabel{iic__controller_8c_a3d47fe962a4bc504988b888940ef09e7}{{2.3}{17}}
\newlabel{iic__controller_8c_a566a864404bffd61a03564fa2c4bea7c}{{2.3}{17}}
\newlabel{iic__controller_8c_afaf03c692646adac1b5a276edd5228f8}{{2.3}{17}}
\newlabel{iic__controller_8c_af7b1ecb30a08fdc775c2e17b0b23b4a3}{{2.3}{17}}
\newlabel{iic__controller_8c_a901cb12f9f782cbfdbc759619db76cc6}{{2.3}{17}}
\newlabel{iic__controller_8c_a1f8e288453adefd5349487c8357bceda}{{2.3}{17}}
\newlabel{iic__controller_8c_a043053c7222ae56696b881f8156f63a6}{{2.3}{17}}
\newlabel{iic__controller_8c_a4c9962a34731eb98aed6f310bcc8ffad}{{2.3}{17}}
\newlabel{iic__controller_8c_a6734e137a0ca470775e372d9a529de6a}{{2.3}{17}}
\newlabel{iic__controller_8c_a10f9ca8c1b4c06cdd7e8f4f581284e70}{{2.3}{17}}
\newlabel{iic__controller_8c_ac4733ad10fdc366f7aa3ae20ade85d2d}{{2.3}{17}}
\newlabel{iic__controller_8c_a631dc6fa20f28e470ce7f6d8d5ffa294}{{2.3}{17}}
\newlabel{iic__controller_8c_ab66ed8e0098c0a86b458672a55a9cca9}{{2.3}{17}}
\newlabel{iic__controller_8c_a71622a9063da893a16be615d17ca2c88}{{2.3}{17}}
\@writefile{toc}{\contentsline {subsection}{\numberline {2.3.1}Detailed Description}{18}}
\@writefile{toc}{\contentsline {section}{\numberline {2.4}keyboard.\discretionary {\unhbox \voidb@x \hbox {\relax \fontsize  {7}{8}\selectfont  $\leftarrow \joinrel  \rhook $}}{}{}c File Reference}{18}}
\newlabel{keyboard_8c}{{2.4}{18}}
\newlabel{keyboard_8c_ab14f61b291023c3948256a7aefa76c9d}{{2.4}{18}}
\newlabel{keyboard_8c_ac9434643a05fc572fcd189b959cf4aee}{{2.4}{18}}
\newlabel{keyboard_8c_a1e6d097efe95c293a123faa44ad8d07d}{{2.4}{18}}
\newlabel{keyboard_8c_ad3c0f2e2af2299991edee1defd1d9ea7}{{2.4}{18}}
\@writefile{toc}{\contentsline {subsection}{\numberline {2.4.1}Detailed Description}{18}}
\@writefile{toc}{\contentsline {subsection}{\numberline {2.4.2}Function Documentation}{19}}
\newlabel{keyboard_8c_ada84987349e5470fdf4bbf4552d20f30}{{2.4.2}{19}}
\@writefile{toc}{\contentsline {subsubsection}{\numberline {2.4.2.1}get\discretionary {\unhbox \voidb@x \hbox {\relax \fontsize  {7}{8}\selectfont  $\leftarrow \joinrel  \rhook $}}{}{}\_\discretionary {\unhbox \voidb@x \hbox {\relax \fontsize  {7}{8}\selectfont  $\leftarrow \joinrel  \rhook $}}{}{}next\discretionary {\unhbox \voidb@x \hbox {\relax \fontsize  {7}{8}\selectfont  $\leftarrow \joinrel  \rhook $}}{}{}\_\discretionary {\unhbox \voidb@x \hbox {\relax \fontsize  {7}{8}\selectfont  $\leftarrow \joinrel  \rhook $}}{}{}key()}{19}}
\newlabel{keyboard_8c_a9e4d501adc191769969256faa2eece3d}{{2.4.2.1}{19}}
\@writefile{toc}{\contentsline {subsubsection}{\numberline {2.4.2.2}init\discretionary {\unhbox \voidb@x \hbox {\relax \fontsize  {7}{8}\selectfont  $\leftarrow \joinrel  \rhook $}}{}{}\_\discretionary {\unhbox \voidb@x \hbox {\relax \fontsize  {7}{8}\selectfont  $\leftarrow \joinrel  \rhook $}}{}{}keyboard()}{19}}
\@writefile{toc}{\contentsline {section}{\numberline {2.5}laser.\discretionary {\unhbox \voidb@x \hbox {\relax \fontsize  {7}{8}\selectfont  $\leftarrow \joinrel  \rhook $}}{}{}c File Reference}{20}}
\newlabel{laser_8c}{{2.5}{20}}
\newlabel{laser_8c_a7c47bc9568c818c0f967ab266cf2a324}{{2.5}{20}}
\newlabel{laser_8c_a4bb47863775a37236bda65273c01b275}{{2.5}{20}}
\newlabel{laser_8c_ac291cd739f1f2d26c0092692b26b0527}{{2.5}{20}}
\newlabel{laser_8c_a2f973fc01a2f6801f2d1ad1ce91511e2}{{2.5}{20}}
\newlabel{laser_8c_aee963123ec4f2baef59b332a9f6d06e0}{{2.5}{20}}
\newlabel{laser_8c_a2a8dea03a0f85d864c58c7e5361913f2}{{2.5}{20}}
\@writefile{toc}{\contentsline {subsection}{\numberline {2.5.1}Detailed Description}{20}}
\@writefile{toc}{\contentsline {subsection}{\numberline {2.5.2}Function Documentation}{21}}
\newlabel{laser_8c_aca1d93d0b7f2aa6b342b46d44201a911}{{2.5.2}{21}}
\@writefile{toc}{\contentsline {subsubsection}{\numberline {2.5.2.1}get\discretionary {\unhbox \voidb@x \hbox {\relax \fontsize  {7}{8}\selectfont  $\leftarrow \joinrel  \rhook $}}{}{}Distance()}{21}}
\newlabel{laser_8c_a8dc3d81dcc248397e5abbdc8d0843a97}{{2.5.2.1}{21}}
\@writefile{toc}{\contentsline {subsubsection}{\numberline {2.5.2.2}Laser\discretionary {\unhbox \voidb@x \hbox {\relax \fontsize  {7}{8}\selectfont  $\leftarrow \joinrel  \rhook $}}{}{}\_\discretionary {\unhbox \voidb@x \hbox {\relax \fontsize  {7}{8}\selectfont  $\leftarrow \joinrel  \rhook $}}{}{}\discretionary {\unhbox \voidb@x \hbox {\relax \fontsize  {7}{8}\selectfont  $\leftarrow \joinrel  \rhook $}}{}{}P\discretionary {\unhbox \voidb@x \hbox {\relax \fontsize  {7}{8}\selectfont  $\leftarrow \joinrel  \rhook $}}{}{}W\discretionary {\unhbox \voidb@x \hbox {\relax \fontsize  {7}{8}\selectfont  $\leftarrow \joinrel  \rhook $}}{}{}M\discretionary {\unhbox \voidb@x \hbox {\relax \fontsize  {7}{8}\selectfont  $\leftarrow \joinrel  \rhook $}}{}{}\_\discretionary {\unhbox \voidb@x \hbox {\relax \fontsize  {7}{8}\selectfont  $\leftarrow \joinrel  \rhook $}}{}{}isr()}{21}}
\gdef \LT@ix {\LT@entry 
    {3}{14.79794pt}\LT@entry 
    {3}{169.5096pt}}
\newlabel{laser_8c_ae20e357a085f39d26c7aaf804f147f06}{{2.5.2.2}{22}}
\@writefile{toc}{\contentsline {subsubsection}{\numberline {2.5.2.3}laser\discretionary {\unhbox \voidb@x \hbox {\relax \fontsize  {7}{8}\selectfont  $\leftarrow \joinrel  \rhook $}}{}{}\_\discretionary {\unhbox \voidb@x \hbox {\relax \fontsize  {7}{8}\selectfont  $\leftarrow \joinrel  \rhook $}}{}{}set\discretionary {\unhbox \voidb@x \hbox {\relax \fontsize  {7}{8}\selectfont  $\leftarrow \joinrel  \rhook $}}{}{}\_\discretionary {\unhbox \voidb@x \hbox {\relax \fontsize  {7}{8}\selectfont  $\leftarrow \joinrel  \rhook $}}{}{}samples()}{22}}
\newlabel{laser_8c_aed75f1d4abef993da2fd12ff228a90db}{{2.5.2.3}{22}}
\gdef \LT@x {\LT@entry 
    {3}{17.8039pt}\LT@entry 
    {3}{417.71626pt}}
\@writefile{toc}{\contentsline {subsubsection}{\numberline {2.5.2.4}send\discretionary {\unhbox \voidb@x \hbox {\relax \fontsize  {7}{8}\selectfont  $\leftarrow \joinrel  \rhook $}}{}{}\_\discretionary {\unhbox \voidb@x \hbox {\relax \fontsize  {7}{8}\selectfont  $\leftarrow \joinrel  \rhook $}}{}{}range\discretionary {\unhbox \voidb@x \hbox {\relax \fontsize  {7}{8}\selectfont  $\leftarrow \joinrel  \rhook $}}{}{}\_\discretionary {\unhbox \voidb@x \hbox {\relax \fontsize  {7}{8}\selectfont  $\leftarrow \joinrel  \rhook $}}{}{}to\discretionary {\unhbox \voidb@x \hbox {\relax \fontsize  {7}{8}\selectfont  $\leftarrow \joinrel  \rhook $}}{}{}\_\discretionary {\unhbox \voidb@x \hbox {\relax \fontsize  {7}{8}\selectfont  $\leftarrow \joinrel  \rhook $}}{}{}\discretionary {\unhbox \voidb@x \hbox {\relax \fontsize  {7}{8}\selectfont  $\leftarrow \joinrel  \rhook $}}{}{}P\discretionary {\unhbox \voidb@x \hbox {\relax \fontsize  {7}{8}\selectfont  $\leftarrow \joinrel  \rhook $}}{}{}C()}{23}}
\newlabel{laser_8c_ab46c3029d71990baa5d1d9d1f4c99b70}{{2.5.2.4}{23}}
\@writefile{toc}{\contentsline {subsubsection}{\numberline {2.5.2.5}set\discretionary {\unhbox \voidb@x \hbox {\relax \fontsize  {7}{8}\selectfont  $\leftarrow \joinrel  \rhook $}}{}{}\_\discretionary {\unhbox \voidb@x \hbox {\relax \fontsize  {7}{8}\selectfont  $\leftarrow \joinrel  \rhook $}}{}{}laser\discretionary {\unhbox \voidb@x \hbox {\relax \fontsize  {7}{8}\selectfont  $\leftarrow \joinrel  \rhook $}}{}{}\_\discretionary {\unhbox \voidb@x \hbox {\relax \fontsize  {7}{8}\selectfont  $\leftarrow \joinrel  \rhook $}}{}{}divisor()}{23}}
\@writefile{toc}{\contentsline {section}{\numberline {2.6}lcd.\discretionary {\unhbox \voidb@x \hbox {\relax \fontsize  {7}{8}\selectfont  $\leftarrow \joinrel  \rhook $}}{}{}c File Reference}{23}}
\newlabel{lcd_8c}{{2.6}{23}}
\newlabel{lcd_8c_a0971babc4247886f1e483549184fa720}{{2.6}{24}}
\newlabel{lcd_8c_a50e98e2a98ad7e87690a47d4f15956cd}{{2.6}{24}}
\newlabel{lcd_8c_a99e73771334e6b8c1e88c0ee9b1a2a0d}{{2.6}{24}}
\@writefile{toc}{\contentsline {subsection}{\numberline {2.6.1}Detailed Description}{24}}
\@writefile{toc}{\contentsline {subsection}{\numberline {2.6.2}Function Documentation}{24}}
\newlabel{lcd_8c_a2ada3648e8ed103802be3e5cc0cacf27}{{2.6.2}{24}}
\@writefile{toc}{\contentsline {subsubsection}{\numberline {2.6.2.1}get\discretionary {\unhbox \voidb@x \hbox {\relax \fontsize  {7}{8}\selectfont  $\leftarrow \joinrel  \rhook $}}{}{}\_\discretionary {\unhbox \voidb@x \hbox {\relax \fontsize  {7}{8}\selectfont  $\leftarrow \joinrel  \rhook $}}{}{}\discretionary {\unhbox \voidb@x \hbox {\relax \fontsize  {7}{8}\selectfont  $\leftarrow \joinrel  \rhook $}}{}{}L\discretionary {\unhbox \voidb@x \hbox {\relax \fontsize  {7}{8}\selectfont  $\leftarrow \joinrel  \rhook $}}{}{}C\discretionary {\unhbox \voidb@x \hbox {\relax \fontsize  {7}{8}\selectfont  $\leftarrow \joinrel  \rhook $}}{}{}D\discretionary {\unhbox \voidb@x \hbox {\relax \fontsize  {7}{8}\selectfont  $\leftarrow \joinrel  \rhook $}}{}{}\_\discretionary {\unhbox \voidb@x \hbox {\relax \fontsize  {7}{8}\selectfont  $\leftarrow \joinrel  \rhook $}}{}{}buf\discretionary {\unhbox \voidb@x \hbox {\relax \fontsize  {7}{8}\selectfont  $\leftarrow \joinrel  \rhook $}}{}{}\_\discretionary {\unhbox \voidb@x \hbox {\relax \fontsize  {7}{8}\selectfont  $\leftarrow \joinrel  \rhook $}}{}{}ptr()}{25}}
\newlabel{lcd_8c_a0742e25c23ca1096ceba081b98fd58ba}{{2.6.2.1}{25}}
\@writefile{toc}{\contentsline {subsubsection}{\numberline {2.6.2.2}L\discretionary {\unhbox \voidb@x \hbox {\relax \fontsize  {7}{8}\selectfont  $\leftarrow \joinrel  \rhook $}}{}{}C\discretionary {\unhbox \voidb@x \hbox {\relax \fontsize  {7}{8}\selectfont  $\leftarrow \joinrel  \rhook $}}{}{}D\discretionary {\unhbox \voidb@x \hbox {\relax \fontsize  {7}{8}\selectfont  $\leftarrow \joinrel  \rhook $}}{}{}\_\discretionary {\unhbox \voidb@x \hbox {\relax \fontsize  {7}{8}\selectfont  $\leftarrow \joinrel  \rhook $}}{}{}init()}{25}}
\newlabel{lcd_8c_ac9ed31598ff27124e119052fd71e2f41}{{2.6.2.2}{25}}
\@writefile{toc}{\contentsline {subsubsection}{\numberline {2.6.2.3}L\discretionary {\unhbox \voidb@x \hbox {\relax \fontsize  {7}{8}\selectfont  $\leftarrow \joinrel  \rhook $}}{}{}C\discretionary {\unhbox \voidb@x \hbox {\relax \fontsize  {7}{8}\selectfont  $\leftarrow \joinrel  \rhook $}}{}{}D\discretionary {\unhbox \voidb@x \hbox {\relax \fontsize  {7}{8}\selectfont  $\leftarrow \joinrel  \rhook $}}{}{}\_\discretionary {\unhbox \voidb@x \hbox {\relax \fontsize  {7}{8}\selectfont  $\leftarrow \joinrel  \rhook $}}{}{}put\discretionary {\unhbox \voidb@x \hbox {\relax \fontsize  {7}{8}\selectfont  $\leftarrow \joinrel  \rhook $}}{}{}\_\discretionary {\unhbox \voidb@x \hbox {\relax \fontsize  {7}{8}\selectfont  $\leftarrow \joinrel  \rhook $}}{}{}string()}{25}}
\gdef \LT@xi {\LT@entry 
    {3}{34.93945pt}\LT@entry 
    {3}{290.92563pt}}
\gdef \LT@xii {\LT@entry 
    {3}{44.80347pt}\LT@entry 
    {3}{114.4127pt}}
\newlabel{lcd_8c_a1127a2edb207ad6c7b6af5ad5c2a93fe}{{2.6.2.3}{26}}
\@writefile{toc}{\contentsline {subsubsection}{\numberline {2.6.2.4}M\discretionary {\unhbox \voidb@x \hbox {\relax \fontsize  {7}{8}\selectfont  $\leftarrow \joinrel  \rhook $}}{}{}S\discretionary {\unhbox \voidb@x \hbox {\relax \fontsize  {7}{8}\selectfont  $\leftarrow \joinrel  \rhook $}}{}{}Delay()}{26}}
\@writefile{toc}{\contentsline {section}{\numberline {2.7}main.\discretionary {\unhbox \voidb@x \hbox {\relax \fontsize  {7}{8}\selectfont  $\leftarrow \joinrel  \rhook $}}{}{}c File Reference}{26}}
\newlabel{main_8c}{{2.7}{26}}
\newlabel{main_8c_a6288eba0f8e8ad3ab1544ad731eb7667}{{2.7}{27}}
\newlabel{main_8c_aa4e4f17df73ec2908c1689e149b96d21}{{2.7}{27}}
\newlabel{main_8c_a45bb3e94368dc5969f57f45ad9618642}{{2.7}{27}}
\newlabel{main_8c_ae850ad213dac8e7db44ef35013b485b8}{{2.7}{27}}
\newlabel{main_8c_af1a33c901c7c892065b53b0a6191d7fc}{{2.7}{27}}
\newlabel{main_8c_a6d1c451f986ab3c489f22ac510fa6c2f}{{2.7}{27}}
\@writefile{toc}{\contentsline {subsection}{\numberline {2.7.1}Detailed Description}{27}}
\@writefile{toc}{\contentsline {subsection}{\numberline {2.7.2}Macro Definition Documentation}{28}}
\newlabel{main_8c_aa8b704ffb349a1c55c819eb98c436c36}{{2.7.2}{28}}
\@writefile{toc}{\contentsline {subsubsection}{\numberline {2.7.2.1}D\discretionary {\unhbox \voidb@x \hbox {\relax \fontsize  {7}{8}\selectfont  $\leftarrow \joinrel  \rhook $}}{}{}O\discretionary {\unhbox \voidb@x \hbox {\relax \fontsize  {7}{8}\selectfont  $\leftarrow \joinrel  \rhook $}}{}{}\_\discretionary {\unhbox \voidb@x \hbox {\relax \fontsize  {7}{8}\selectfont  $\leftarrow \joinrel  \rhook $}}{}{}\discretionary {\unhbox \voidb@x \hbox {\relax \fontsize  {7}{8}\selectfont  $\leftarrow \joinrel  \rhook $}}{}{}L\discretionary {\unhbox \voidb@x \hbox {\relax \fontsize  {7}{8}\selectfont  $\leftarrow \joinrel  \rhook $}}{}{}A\discretionary {\unhbox \voidb@x \hbox {\relax \fontsize  {7}{8}\selectfont  $\leftarrow \joinrel  \rhook $}}{}{}T\discretionary {\unhbox \voidb@x \hbox {\relax \fontsize  {7}{8}\selectfont  $\leftarrow \joinrel  \rhook $}}{}{}ER}{28}}
\newlabel{main_8c_a48380c9574bb49276efa38a3cbb6d23c}{{2.7.2.1}{28}}
\@writefile{toc}{\contentsline {subsubsection}{\numberline {2.7.2.2}I\discretionary {\unhbox \voidb@x \hbox {\relax \fontsize  {7}{8}\selectfont  $\leftarrow \joinrel  \rhook $}}{}{}N\discretionary {\unhbox \voidb@x \hbox {\relax \fontsize  {7}{8}\selectfont  $\leftarrow \joinrel  \rhook $}}{}{}CW}{28}}
\@writefile{toc}{\contentsline {subsection}{\numberline {2.7.3}Function Documentation}{28}}
\newlabel{main_8c_ae1dd8d4b8376028ab88b9c309df6aed1}{{2.7.3}{28}}
\@writefile{toc}{\contentsline {subsubsection}{\numberline {2.7.3.1}call\discretionary {\unhbox \voidb@x \hbox {\relax \fontsize  {7}{8}\selectfont  $\leftarrow \joinrel  \rhook $}}{}{}\_\discretionary {\unhbox \voidb@x \hbox {\relax \fontsize  {7}{8}\selectfont  $\leftarrow \joinrel  \rhook $}}{}{}do\discretionary {\unhbox \voidb@x \hbox {\relax \fontsize  {7}{8}\selectfont  $\leftarrow \joinrel  \rhook $}}{}{}\_\discretionary {\unhbox \voidb@x \hbox {\relax \fontsize  {7}{8}\selectfont  $\leftarrow \joinrel  \rhook $}}{}{}later\discretionary {\unhbox \voidb@x \hbox {\relax \fontsize  {7}{8}\selectfont  $\leftarrow \joinrel  \rhook $}}{}{}\_\discretionary {\unhbox \voidb@x \hbox {\relax \fontsize  {7}{8}\selectfont  $\leftarrow \joinrel  \rhook $}}{}{}macro()}{28}}
\gdef \LT@xiii {\LT@entry 
    {3}{34.03969pt}\LT@entry 
    {3}{239.12003pt}}
\newlabel{main_8c_a3076cc239fcad2254b35995bec276d2b}{{2.7.3.1}{29}}
\@writefile{toc}{\contentsline {subsubsection}{\numberline {2.7.3.2}do\discretionary {\unhbox \voidb@x \hbox {\relax \fontsize  {7}{8}\selectfont  $\leftarrow \joinrel  \rhook $}}{}{}\_\discretionary {\unhbox \voidb@x \hbox {\relax \fontsize  {7}{8}\selectfont  $\leftarrow \joinrel  \rhook $}}{}{}initialization()}{29}}
\@writefile{toc}{\contentsline {section}{\numberline {2.8}new\discretionary {\unhbox \voidb@x \hbox {\relax \fontsize  {7}{8}\selectfont  $\leftarrow \joinrel  \rhook $}}{}{}Scan.\discretionary {\unhbox \voidb@x \hbox {\relax \fontsize  {7}{8}\selectfont  $\leftarrow \joinrel  \rhook $}}{}{}c File Reference}{30}}
\newlabel{new_scan_8c}{{2.8}{30}}
\newlabel{new_scan_8c_a070d2ce7b6bb7e5c05602aa8c308d0c4}{{2.8}{30}}
\newlabel{new_scan_8c_a25b6f2a960898d1c9f787ce799e94ff3}{{2.8}{30}}
\newlabel{new_scan_8c_a4415501987e51fc691bb1e0959b6e6ca}{{2.8}{31}}
\newlabel{new_scan_8c_aef6b545af99a6fb37c19c1a644342453}{{2.8}{31}}
\newlabel{new_scan_8c_af06a1d9ab6fbae9aae262b67c4e185b2}{{2.8}{31}}
\newlabel{new_scan_8c_a3ecbdd038251e545d8163981d7db2841}{{2.8}{31}}
\newlabel{new_scan_8c_a94900838ab95fdac5649cbfe2ebbac3d}{{2.8}{31}}
\newlabel{new_scan_8c_a682b82a72e19867a15795a73afa75c95}{{2.8}{31}}
\newlabel{new_scan_8c_a3ec35e3f2c495d5344cdd01be3ac2239}{{2.8}{31}}
\newlabel{new_scan_8c_af39f1e8ab4c2b4c7ee38a0ebe549327d}{{2.8}{31}}
\newlabel{new_scan_8c_aad91fbc1e546923782951bbccdeff0fc}{{2.8}{31}}
\newlabel{new_scan_8c_af59cbba5bf4335df849e140cf41403d7}{{2.8}{31}}
\newlabel{new_scan_8c_a4880f740bc4d28f6b64ab4f3ab88e7a9}{{2.8}{31}}
\newlabel{new_scan_8c_a48fad44bd208f76650b6bb71b17b65ff}{{2.8}{31}}
\newlabel{new_scan_8c_a3f2fa12a1e828176efa69c3f2f26a03d}{{2.8}{31}}
\newlabel{new_scan_8c_a586654df7ad10aa20c9cb0836da60f21}{{2.8}{31}}
\newlabel{new_scan_8c_a4b5cd7ba31936da9d23cb71125501342}{{2.8}{31}}
\@writefile{toc}{\contentsline {subsection}{\numberline {2.8.1}Detailed Description}{31}}
\@writefile{toc}{\contentsline {subsection}{\numberline {2.8.2}Function Documentation}{31}}
\newlabel{new_scan_8c_a99415e08b494f49b8bd8f2803125fc8a}{{2.8.2}{31}}
\@writefile{toc}{\contentsline {subsubsection}{\numberline {2.8.2.1}area\discretionary {\unhbox \voidb@x \hbox {\relax \fontsize  {7}{8}\selectfont  $\leftarrow \joinrel  \rhook $}}{}{}\_\discretionary {\unhbox \voidb@x \hbox {\relax \fontsize  {7}{8}\selectfont  $\leftarrow \joinrel  \rhook $}}{}{}to\discretionary {\unhbox \voidb@x \hbox {\relax \fontsize  {7}{8}\selectfont  $\leftarrow \joinrel  \rhook $}}{}{}\_\discretionary {\unhbox \voidb@x \hbox {\relax \fontsize  {7}{8}\selectfont  $\leftarrow \joinrel  \rhook $}}{}{}\discretionary {\unhbox \voidb@x \hbox {\relax \fontsize  {7}{8}\selectfont  $\leftarrow \joinrel  \rhook $}}{}{}L\discretionary {\unhbox \voidb@x \hbox {\relax \fontsize  {7}{8}\selectfont  $\leftarrow \joinrel  \rhook $}}{}{}C\discretionary {\unhbox \voidb@x \hbox {\relax \fontsize  {7}{8}\selectfont  $\leftarrow \joinrel  \rhook $}}{}{}D()}{32}}
\newlabel{new_scan_8c_a8093155afac091d46e6e58e952f05cf1}{{2.8.2.1}{32}}
\@writefile{toc}{\contentsline {subsubsection}{\numberline {2.8.2.2}check\discretionary {\unhbox \voidb@x \hbox {\relax \fontsize  {7}{8}\selectfont  $\leftarrow \joinrel  \rhook $}}{}{}\_\discretionary {\unhbox \voidb@x \hbox {\relax \fontsize  {7}{8}\selectfont  $\leftarrow \joinrel  \rhook $}}{}{}range()}{32}}
\newlabel{new_scan_8c_af70c6fa492b83a9b138cf5c0019feb83}{{2.8.2.2}{32}}
\@writefile{toc}{\contentsline {subsubsection}{\numberline {2.8.2.3}down\discretionary {\unhbox \voidb@x \hbox {\relax \fontsize  {7}{8}\selectfont  $\leftarrow \joinrel  \rhook $}}{}{}\_\discretionary {\unhbox \voidb@x \hbox {\relax \fontsize  {7}{8}\selectfont  $\leftarrow \joinrel  \rhook $}}{}{}until\discretionary {\unhbox \voidb@x \hbox {\relax \fontsize  {7}{8}\selectfont  $\leftarrow \joinrel  \rhook $}}{}{}\_\discretionary {\unhbox \voidb@x \hbox {\relax \fontsize  {7}{8}\selectfont  $\leftarrow \joinrel  \rhook $}}{}{}no\discretionary {\unhbox \voidb@x \hbox {\relax \fontsize  {7}{8}\selectfont  $\leftarrow \joinrel  \rhook $}}{}{}\_\discretionary {\unhbox \voidb@x \hbox {\relax \fontsize  {7}{8}\selectfont  $\leftarrow \joinrel  \rhook $}}{}{}range()}{32}}
\gdef \LT@xiv {\LT@entry 
    {3}{23.30272pt}\LT@entry 
    {3}{192.0184pt}}
\gdef \LT@xv {\LT@entry 
    {3}{23.30272pt}\LT@entry 
    {3}{192.0184pt}}
\newlabel{new_scan_8c_ae84683e3736bd44f3b0bd1d9c8670e39}{{2.8.2.3}{33}}
\@writefile{toc}{\contentsline {subsubsection}{\numberline {2.8.2.4}left\discretionary {\unhbox \voidb@x \hbox {\relax \fontsize  {7}{8}\selectfont  $\leftarrow \joinrel  \rhook $}}{}{}\_\discretionary {\unhbox \voidb@x \hbox {\relax \fontsize  {7}{8}\selectfont  $\leftarrow \joinrel  \rhook $}}{}{}until\discretionary {\unhbox \voidb@x \hbox {\relax \fontsize  {7}{8}\selectfont  $\leftarrow \joinrel  \rhook $}}{}{}\_\discretionary {\unhbox \voidb@x \hbox {\relax \fontsize  {7}{8}\selectfont  $\leftarrow \joinrel  \rhook $}}{}{}no\discretionary {\unhbox \voidb@x \hbox {\relax \fontsize  {7}{8}\selectfont  $\leftarrow \joinrel  \rhook $}}{}{}\_\discretionary {\unhbox \voidb@x \hbox {\relax \fontsize  {7}{8}\selectfont  $\leftarrow \joinrel  \rhook $}}{}{}range()}{33}}
\gdef \LT@xvi {\LT@entry 
    {3}{38.26047pt}\LT@entry 
    {3}{372.42755pt}}
\newlabel{new_scan_8c_aafd3cf7d61d8e18ea1402dda5cdf9ab1}{{2.8.2.4}{34}}
\@writefile{toc}{\contentsline {subsubsection}{\numberline {2.8.2.5}new\discretionary {\unhbox \voidb@x \hbox {\relax \fontsize  {7}{8}\selectfont  $\leftarrow \joinrel  \rhook $}}{}{}Scan\discretionary {\unhbox \voidb@x \hbox {\relax \fontsize  {7}{8}\selectfont  $\leftarrow \joinrel  \rhook $}}{}{}\_\discretionary {\unhbox \voidb@x \hbox {\relax \fontsize  {7}{8}\selectfont  $\leftarrow \joinrel  \rhook $}}{}{}init()}{34}}
\newlabel{new_scan_8c_a3ea7fb8035d7e83985315cd9df86104e}{{2.8.2.5}{34}}
\@writefile{toc}{\contentsline {subsubsection}{\numberline {2.8.2.6}print\discretionary {\unhbox \voidb@x \hbox {\relax \fontsize  {7}{8}\selectfont  $\leftarrow \joinrel  \rhook $}}{}{}\_\discretionary {\unhbox \voidb@x \hbox {\relax \fontsize  {7}{8}\selectfont  $\leftarrow \joinrel  \rhook $}}{}{}with\discretionary {\unhbox \voidb@x \hbox {\relax \fontsize  {7}{8}\selectfont  $\leftarrow \joinrel  \rhook $}}{}{}\_\discretionary {\unhbox \voidb@x \hbox {\relax \fontsize  {7}{8}\selectfont  $\leftarrow \joinrel  \rhook $}}{}{}pos()}{34}}
\gdef \LT@xvii {\LT@entry 
    {3}{23.30272pt}\LT@entry 
    {3}{192.0184pt}}
\newlabel{new_scan_8c_a465944ad471bbaa3f4cedf9740a32f84}{{2.8.2.6}{35}}
\@writefile{toc}{\contentsline {subsubsection}{\numberline {2.8.2.7}rect\discretionary {\unhbox \voidb@x \hbox {\relax \fontsize  {7}{8}\selectfont  $\leftarrow \joinrel  \rhook $}}{}{}\_\discretionary {\unhbox \voidb@x \hbox {\relax \fontsize  {7}{8}\selectfont  $\leftarrow \joinrel  \rhook $}}{}{}left\discretionary {\unhbox \voidb@x \hbox {\relax \fontsize  {7}{8}\selectfont  $\leftarrow \joinrel  \rhook $}}{}{}\_\discretionary {\unhbox \voidb@x \hbox {\relax \fontsize  {7}{8}\selectfont  $\leftarrow \joinrel  \rhook $}}{}{}edge\discretionary {\unhbox \voidb@x \hbox {\relax \fontsize  {7}{8}\selectfont  $\leftarrow \joinrel  \rhook $}}{}{}\_\discretionary {\unhbox \voidb@x \hbox {\relax \fontsize  {7}{8}\selectfont  $\leftarrow \joinrel  \rhook $}}{}{}found()}{35}}
\newlabel{new_scan_8c_a3d93384b21e122224a2347c3f282d666}{{2.8.2.7}{35}}
\@writefile{toc}{\contentsline {subsubsection}{\numberline {2.8.2.8}right\discretionary {\unhbox \voidb@x \hbox {\relax \fontsize  {7}{8}\selectfont  $\leftarrow \joinrel  \rhook $}}{}{}\_\discretionary {\unhbox \voidb@x \hbox {\relax \fontsize  {7}{8}\selectfont  $\leftarrow \joinrel  \rhook $}}{}{}until\discretionary {\unhbox \voidb@x \hbox {\relax \fontsize  {7}{8}\selectfont  $\leftarrow \joinrel  \rhook $}}{}{}\_\discretionary {\unhbox \voidb@x \hbox {\relax \fontsize  {7}{8}\selectfont  $\leftarrow \joinrel  \rhook $}}{}{}bound()}{35}}
\gdef \LT@xviii {\LT@entry 
    {3}{23.30272pt}\LT@entry 
    {3}{192.0184pt}}
\gdef \LT@xix {\LT@entry 
    {3}{23.30272pt}\LT@entry 
    {3}{192.0184pt}}
\newlabel{new_scan_8c_aa2852a7a1a607b289b46d02a6578ffc3}{{2.8.2.8}{36}}
\@writefile{toc}{\contentsline {subsubsection}{\numberline {2.8.2.9}right\discretionary {\unhbox \voidb@x \hbox {\relax \fontsize  {7}{8}\selectfont  $\leftarrow \joinrel  \rhook $}}{}{}\_\discretionary {\unhbox \voidb@x \hbox {\relax \fontsize  {7}{8}\selectfont  $\leftarrow \joinrel  \rhook $}}{}{}until\discretionary {\unhbox \voidb@x \hbox {\relax \fontsize  {7}{8}\selectfont  $\leftarrow \joinrel  \rhook $}}{}{}\_\discretionary {\unhbox \voidb@x \hbox {\relax \fontsize  {7}{8}\selectfont  $\leftarrow \joinrel  \rhook $}}{}{}no\discretionary {\unhbox \voidb@x \hbox {\relax \fontsize  {7}{8}\selectfont  $\leftarrow \joinrel  \rhook $}}{}{}\_\discretionary {\unhbox \voidb@x \hbox {\relax \fontsize  {7}{8}\selectfont  $\leftarrow \joinrel  \rhook $}}{}{}range()}{36}}
\gdef \LT@xx {\LT@entry 
    {3}{17.8039pt}\LT@entry 
    {3}{297.09984pt}}
\gdef \LT@xxi {\LT@entry 
    {3}{14.79794pt}\LT@entry 
    {3}{153.08496pt}}
\newlabel{new_scan_8c_a3866676bdb93925604973184ccd971ae}{{2.8.2.9}{37}}
\@writefile{toc}{\contentsline {subsubsection}{\numberline {2.8.2.10}set\discretionary {\unhbox \voidb@x \hbox {\relax \fontsize  {7}{8}\selectfont  $\leftarrow \joinrel  \rhook $}}{}{}\_\discretionary {\unhbox \voidb@x \hbox {\relax \fontsize  {7}{8}\selectfont  $\leftarrow \joinrel  \rhook $}}{}{}rect\discretionary {\unhbox \voidb@x \hbox {\relax \fontsize  {7}{8}\selectfont  $\leftarrow \joinrel  \rhook $}}{}{}\_\discretionary {\unhbox \voidb@x \hbox {\relax \fontsize  {7}{8}\selectfont  $\leftarrow \joinrel  \rhook $}}{}{}bottom\discretionary {\unhbox \voidb@x \hbox {\relax \fontsize  {7}{8}\selectfont  $\leftarrow \joinrel  \rhook $}}{}{}\_\discretionary {\unhbox \voidb@x \hbox {\relax \fontsize  {7}{8}\selectfont  $\leftarrow \joinrel  \rhook $}}{}{}bound()}{37}}
\newlabel{new_scan_8c_a5b9734163f2d632699d0682de4e6452c}{{2.8.2.10}{37}}
\@writefile{toc}{\contentsline {subsubsection}{\numberline {2.8.2.11}set\discretionary {\unhbox \voidb@x \hbox {\relax \fontsize  {7}{8}\selectfont  $\leftarrow \joinrel  \rhook $}}{}{}\_\discretionary {\unhbox \voidb@x \hbox {\relax \fontsize  {7}{8}\selectfont  $\leftarrow \joinrel  \rhook $}}{}{}rect\discretionary {\unhbox \voidb@x \hbox {\relax \fontsize  {7}{8}\selectfont  $\leftarrow \joinrel  \rhook $}}{}{}\_\discretionary {\unhbox \voidb@x \hbox {\relax \fontsize  {7}{8}\selectfont  $\leftarrow \joinrel  \rhook $}}{}{}laser\discretionary {\unhbox \voidb@x \hbox {\relax \fontsize  {7}{8}\selectfont  $\leftarrow \joinrel  \rhook $}}{}{}\_\discretionary {\unhbox \voidb@x \hbox {\relax \fontsize  {7}{8}\selectfont  $\leftarrow \joinrel  \rhook $}}{}{}samples()}{37}}
\gdef \LT@xxii {\LT@entry 
    {3}{17.8039pt}\LT@entry 
    {3}{283.60005pt}}
\gdef \LT@xxiii {\LT@entry 
    {3}{14.79794pt}\LT@entry 
    {3}{292.94232pt}}
\newlabel{new_scan_8c_a920395aefcb5b8d8db07f377e698fad3}{{2.8.2.11}{38}}
\@writefile{toc}{\contentsline {subsubsection}{\numberline {2.8.2.12}set\discretionary {\unhbox \voidb@x \hbox {\relax \fontsize  {7}{8}\selectfont  $\leftarrow \joinrel  \rhook $}}{}{}\_\discretionary {\unhbox \voidb@x \hbox {\relax \fontsize  {7}{8}\selectfont  $\leftarrow \joinrel  \rhook $}}{}{}rect\discretionary {\unhbox \voidb@x \hbox {\relax \fontsize  {7}{8}\selectfont  $\leftarrow \joinrel  \rhook $}}{}{}\_\discretionary {\unhbox \voidb@x \hbox {\relax \fontsize  {7}{8}\selectfont  $\leftarrow \joinrel  \rhook $}}{}{}left\discretionary {\unhbox \voidb@x \hbox {\relax \fontsize  {7}{8}\selectfont  $\leftarrow \joinrel  \rhook $}}{}{}\_\discretionary {\unhbox \voidb@x \hbox {\relax \fontsize  {7}{8}\selectfont  $\leftarrow \joinrel  \rhook $}}{}{}bound()}{38}}
\newlabel{new_scan_8c_aa1cdb51a3925ce7a5c5efd5b9a76c760}{{2.8.2.12}{38}}
\@writefile{toc}{\contentsline {subsubsection}{\numberline {2.8.2.13}set\discretionary {\unhbox \voidb@x \hbox {\relax \fontsize  {7}{8}\selectfont  $\leftarrow \joinrel  \rhook $}}{}{}\_\discretionary {\unhbox \voidb@x \hbox {\relax \fontsize  {7}{8}\selectfont  $\leftarrow \joinrel  \rhook $}}{}{}rect\discretionary {\unhbox \voidb@x \hbox {\relax \fontsize  {7}{8}\selectfont  $\leftarrow \joinrel  \rhook $}}{}{}\_\discretionary {\unhbox \voidb@x \hbox {\relax \fontsize  {7}{8}\selectfont  $\leftarrow \joinrel  \rhook $}}{}{}res()}{38}}
\gdef \LT@xxiv {\LT@entry 
    {3}{17.8039pt}\LT@entry 
    {3}{289.59404pt}}
\gdef \LT@xxv {\LT@entry 
    {3}{17.8039pt}\LT@entry 
    {3}{283.01526pt}}
\newlabel{new_scan_8c_accdaaf790d1680f02ccb8d8042397247}{{2.8.2.13}{39}}
\@writefile{toc}{\contentsline {subsubsection}{\numberline {2.8.2.14}set\discretionary {\unhbox \voidb@x \hbox {\relax \fontsize  {7}{8}\selectfont  $\leftarrow \joinrel  \rhook $}}{}{}\_\discretionary {\unhbox \voidb@x \hbox {\relax \fontsize  {7}{8}\selectfont  $\leftarrow \joinrel  \rhook $}}{}{}rect\discretionary {\unhbox \voidb@x \hbox {\relax \fontsize  {7}{8}\selectfont  $\leftarrow \joinrel  \rhook $}}{}{}\_\discretionary {\unhbox \voidb@x \hbox {\relax \fontsize  {7}{8}\selectfont  $\leftarrow \joinrel  \rhook $}}{}{}right\discretionary {\unhbox \voidb@x \hbox {\relax \fontsize  {7}{8}\selectfont  $\leftarrow \joinrel  \rhook $}}{}{}\_\discretionary {\unhbox \voidb@x \hbox {\relax \fontsize  {7}{8}\selectfont  $\leftarrow \joinrel  \rhook $}}{}{}bound()}{39}}
\newlabel{new_scan_8c_a5b584ec9f5a5551e77d033a7c05cb3ed}{{2.8.2.14}{39}}
\@writefile{toc}{\contentsline {subsubsection}{\numberline {2.8.2.15}set\discretionary {\unhbox \voidb@x \hbox {\relax \fontsize  {7}{8}\selectfont  $\leftarrow \joinrel  \rhook $}}{}{}\_\discretionary {\unhbox \voidb@x \hbox {\relax \fontsize  {7}{8}\selectfont  $\leftarrow \joinrel  \rhook $}}{}{}rect\discretionary {\unhbox \voidb@x \hbox {\relax \fontsize  {7}{8}\selectfont  $\leftarrow \joinrel  \rhook $}}{}{}\_\discretionary {\unhbox \voidb@x \hbox {\relax \fontsize  {7}{8}\selectfont  $\leftarrow \joinrel  \rhook $}}{}{}top\discretionary {\unhbox \voidb@x \hbox {\relax \fontsize  {7}{8}\selectfont  $\leftarrow \joinrel  \rhook $}}{}{}\_\discretionary {\unhbox \voidb@x \hbox {\relax \fontsize  {7}{8}\selectfont  $\leftarrow \joinrel  \rhook $}}{}{}bound()}{39}}
\newlabel{new_scan_8c_aab7f8f457ae9605716157fe0cda2118c}{{2.8.2.15}{39}}
\gdef \LT@xxvi {\LT@entry 
    {3}{23.30272pt}\LT@entry 
    {3}{192.0184pt}}
\gdef \LT@xxvii {\LT@entry 
    {3}{23.30272pt}\LT@entry 
    {3}{192.0184pt}}
\@writefile{toc}{\contentsline {subsubsection}{\numberline {2.8.2.16}start\discretionary {\unhbox \voidb@x \hbox {\relax \fontsize  {7}{8}\selectfont  $\leftarrow \joinrel  \rhook $}}{}{}\_\discretionary {\unhbox \voidb@x \hbox {\relax \fontsize  {7}{8}\selectfont  $\leftarrow \joinrel  \rhook $}}{}{}fast\discretionary {\unhbox \voidb@x \hbox {\relax \fontsize  {7}{8}\selectfont  $\leftarrow \joinrel  \rhook $}}{}{}\_\discretionary {\unhbox \voidb@x \hbox {\relax \fontsize  {7}{8}\selectfont  $\leftarrow \joinrel  \rhook $}}{}{}scan()}{40}}
\newlabel{new_scan_8c_a33fcbf93c645e04e351e0974107d33d8}{{2.8.2.16}{40}}
\@writefile{toc}{\contentsline {subsubsection}{\numberline {2.8.2.17}up\discretionary {\unhbox \voidb@x \hbox {\relax \fontsize  {7}{8}\selectfont  $\leftarrow \joinrel  \rhook $}}{}{}\_\discretionary {\unhbox \voidb@x \hbox {\relax \fontsize  {7}{8}\selectfont  $\leftarrow \joinrel  \rhook $}}{}{}until\discretionary {\unhbox \voidb@x \hbox {\relax \fontsize  {7}{8}\selectfont  $\leftarrow \joinrel  \rhook $}}{}{}\_\discretionary {\unhbox \voidb@x \hbox {\relax \fontsize  {7}{8}\selectfont  $\leftarrow \joinrel  \rhook $}}{}{}no\discretionary {\unhbox \voidb@x \hbox {\relax \fontsize  {7}{8}\selectfont  $\leftarrow \joinrel  \rhook $}}{}{}\_\discretionary {\unhbox \voidb@x \hbox {\relax \fontsize  {7}{8}\selectfont  $\leftarrow \joinrel  \rhook $}}{}{}range()}{40}}
\@writefile{toc}{\contentsline {section}{\numberline {2.9}polyscan.\discretionary {\unhbox \voidb@x \hbox {\relax \fontsize  {7}{8}\selectfont  $\leftarrow \joinrel  \rhook $}}{}{}c File Reference}{41}}
\newlabel{polyscan_8c}{{2.9}{41}}
\newlabel{polyscan_8c_aa8cecfc5c5c054d2875c03e77b7be15d}{{2.9}{41}}
\newlabel{polyscan_8c_aa93f0eb578d23995850d61f7d61c55c1}{{2.9}{41}}
\newlabel{polyscan_8c_ad935f1ff1a50822e317bdb321ce991ad}{{2.9}{41}}
\newlabel{polyscan_8c_adcd021ac91d43a62b2cdecf9a5b971a7}{{2.9}{41}}
\newlabel{polyscan_8c_ab68573d3abc54a794d201be74a3d5bd1}{{2.9}{41}}
\newlabel{polyscan_8c_a87ce0ae3252acb49e3f3023f7609b8ef}{{2.9}{41}}
\newlabel{polyscan_8c_a375d59073b76e41588478dd690b33b8c}{{2.9}{42}}
\newlabel{polyscan_8c_ae0eb053a6ebac7c05091a9e5391e2498}{{2.9}{42}}
\newlabel{polyscan_8c_ae2114d13d6c816445bb12c7dfaca4508}{{2.9}{42}}
\newlabel{polyscan_8c_a699375e7f786bba9317d6678697569eb}{{2.9}{42}}
\newlabel{polyscan_8c_a38c223d1d3f7d63365be17d6e08e4208}{{2.9}{42}}
\newlabel{polyscan_8c_a9382c791545263d23af20c06a5303615}{{2.9}{42}}
\newlabel{polyscan_8c_a26fb1988e996dd7cadbd32d2b61e424f}{{2.9}{42}}
\newlabel{polyscan_8c_a65edd76118a3b0ecb69680d18eaa7dc3}{{2.9}{42}}
\newlabel{polyscan_8c_aeb05fb569d346054b07a2c9da185f1e3}{{2.9}{42}}
\newlabel{polyscan_8c_ae26b331adc0f1affd0183e067e82c3fb}{{2.9}{42}}
\newlabel{polyscan_8c_ae7456e796fb8954bea863d442c8b0f79}{{2.9}{42}}
\newlabel{polyscan_8c_a03761c23fbf61f547e816fe3f118a5c0}{{2.9}{42}}
\newlabel{polyscan_8c_a66b4c807a493e962151b7de70fba734e}{{2.9}{42}}
\newlabel{polyscan_8c_ae5ff5c0ebffac57f2ace0c8eeb319e72}{{2.9}{42}}
\newlabel{polyscan_8c_abe2bf989247042970b36503f1c1a5f5e}{{2.9}{42}}
\newlabel{polyscan_8c_a27bd3c7d30ca6143c8b33b4602701ab0}{{2.9}{42}}
\newlabel{polyscan_8c_aaf5d766413ccf8b9d4e2c2ed4ec1b50f}{{2.9}{42}}
\newlabel{polyscan_8c_a3e0128b5afb45df7b3cbbd09b3eab48c}{{2.9}{42}}
\newlabel{polyscan_8c_a7ead61a221e766a528b4d9d704d68e7b}{{2.9}{42}}
\newlabel{polyscan_8c_a481344e698adc1b3917025e764bf9c60}{{2.9}{42}}
\newlabel{polyscan_8c_a609748b0b0fa7ec941dc17f4a780979c}{{2.9}{42}}
\newlabel{polyscan_8c_aa415ea38bdf940591a34922aa2f0eecb}{{2.9}{42}}
\newlabel{polyscan_8c_a82a7cf48a93b0b1a5c3b9c8928ae58aa}{{2.9}{43}}
\newlabel{polyscan_8c_a1cb5676706c111c9039ccee0cb3762a3}{{2.9}{43}}
\@writefile{toc}{\contentsline {subsection}{\numberline {2.9.1}Detailed Description}{43}}
\@writefile{toc}{\contentsline {subsection}{\numberline {2.9.2}Function Documentation}{43}}
\newlabel{polyscan_8c_ab35a513e903dc99e383fca3bac6e0f47}{{2.9.2}{43}}
\@writefile{toc}{\contentsline {subsubsection}{\numberline {2.9.2.1}p\discretionary {\unhbox \voidb@x \hbox {\relax \fontsize  {7}{8}\selectfont  $\leftarrow \joinrel  \rhook $}}{}{}Area\discretionary {\unhbox \voidb@x \hbox {\relax \fontsize  {7}{8}\selectfont  $\leftarrow \joinrel  \rhook $}}{}{}\_\discretionary {\unhbox \voidb@x \hbox {\relax \fontsize  {7}{8}\selectfont  $\leftarrow \joinrel  \rhook $}}{}{}to\discretionary {\unhbox \voidb@x \hbox {\relax \fontsize  {7}{8}\selectfont  $\leftarrow \joinrel  \rhook $}}{}{}\_\discretionary {\unhbox \voidb@x \hbox {\relax \fontsize  {7}{8}\selectfont  $\leftarrow \joinrel  \rhook $}}{}{}\discretionary {\unhbox \voidb@x \hbox {\relax \fontsize  {7}{8}\selectfont  $\leftarrow \joinrel  \rhook $}}{}{}L\discretionary {\unhbox \voidb@x \hbox {\relax \fontsize  {7}{8}\selectfont  $\leftarrow \joinrel  \rhook $}}{}{}C\discretionary {\unhbox \voidb@x \hbox {\relax \fontsize  {7}{8}\selectfont  $\leftarrow \joinrel  \rhook $}}{}{}D()}{43}}
\newlabel{polyscan_8c_af95da157a54728ce4e7814c0494a6959}{{2.9.2.1}{43}}
\gdef \LT@xxviii {\LT@entry 
    {3}{23.30272pt}\LT@entry 
    {3}{192.0184pt}}
\@writefile{toc}{\contentsline {subsubsection}{\numberline {2.9.2.2}poly\discretionary {\unhbox \voidb@x \hbox {\relax \fontsize  {7}{8}\selectfont  $\leftarrow \joinrel  \rhook $}}{}{}Scan\discretionary {\unhbox \voidb@x \hbox {\relax \fontsize  {7}{8}\selectfont  $\leftarrow \joinrel  \rhook $}}{}{}\_\discretionary {\unhbox \voidb@x \hbox {\relax \fontsize  {7}{8}\selectfont  $\leftarrow \joinrel  \rhook $}}{}{}init()}{44}}
\newlabel{polyscan_8c_a410f0b920c3a012315c76355c5fff585}{{2.9.2.2}{44}}
\@writefile{toc}{\contentsline {subsubsection}{\numberline {2.9.2.3}p\discretionary {\unhbox \voidb@x \hbox {\relax \fontsize  {7}{8}\selectfont  $\leftarrow \joinrel  \rhook $}}{}{}Right\discretionary {\unhbox \voidb@x \hbox {\relax \fontsize  {7}{8}\selectfont  $\leftarrow \joinrel  \rhook $}}{}{}\_\discretionary {\unhbox \voidb@x \hbox {\relax \fontsize  {7}{8}\selectfont  $\leftarrow \joinrel  \rhook $}}{}{}until\discretionary {\unhbox \voidb@x \hbox {\relax \fontsize  {7}{8}\selectfont  $\leftarrow \joinrel  \rhook $}}{}{}\_\discretionary {\unhbox \voidb@x \hbox {\relax \fontsize  {7}{8}\selectfont  $\leftarrow \joinrel  \rhook $}}{}{}bound()}{44}}
\gdef \LT@xxix {\LT@entry 
    {3}{14.79794pt}\LT@entry 
    {3}{153.08496pt}}
\gdef \LT@xxx {\LT@entry 
    {3}{17.8039pt}\LT@entry 
    {3}{154.52524pt}}
\newlabel{polyscan_8c_acd4533d35eec5a76fd17e4434c2011f8}{{2.9.2.3}{45}}
\@writefile{toc}{\contentsline {subsubsection}{\numberline {2.9.2.4}set\discretionary {\unhbox \voidb@x \hbox {\relax \fontsize  {7}{8}\selectfont  $\leftarrow \joinrel  \rhook $}}{}{}\_\discretionary {\unhbox \voidb@x \hbox {\relax \fontsize  {7}{8}\selectfont  $\leftarrow \joinrel  \rhook $}}{}{}num\discretionary {\unhbox \voidb@x \hbox {\relax \fontsize  {7}{8}\selectfont  $\leftarrow \joinrel  \rhook $}}{}{}\_\discretionary {\unhbox \voidb@x \hbox {\relax \fontsize  {7}{8}\selectfont  $\leftarrow \joinrel  \rhook $}}{}{}samples()}{45}}
\newlabel{polyscan_8c_ae3d5b0908ad96c7990c9c4859c9e807a}{{2.9.2.4}{45}}
\@writefile{toc}{\contentsline {subsubsection}{\numberline {2.9.2.5}set\discretionary {\unhbox \voidb@x \hbox {\relax \fontsize  {7}{8}\selectfont  $\leftarrow \joinrel  \rhook $}}{}{}\_\discretionary {\unhbox \voidb@x \hbox {\relax \fontsize  {7}{8}\selectfont  $\leftarrow \joinrel  \rhook $}}{}{}poly\discretionary {\unhbox \voidb@x \hbox {\relax \fontsize  {7}{8}\selectfont  $\leftarrow \joinrel  \rhook $}}{}{}\_\discretionary {\unhbox \voidb@x \hbox {\relax \fontsize  {7}{8}\selectfont  $\leftarrow \joinrel  \rhook $}}{}{}bottom\discretionary {\unhbox \voidb@x \hbox {\relax \fontsize  {7}{8}\selectfont  $\leftarrow \joinrel  \rhook $}}{}{}\_\discretionary {\unhbox \voidb@x \hbox {\relax \fontsize  {7}{8}\selectfont  $\leftarrow \joinrel  \rhook $}}{}{}bound()}{45}}
\gdef \LT@xxxi {\LT@entry 
    {3}{17.8039pt}\LT@entry 
    {3}{145.25517pt}}
\gdef \LT@xxxii {\LT@entry 
    {3}{14.79794pt}\LT@entry 
    {3}{193.12529pt}}
\newlabel{polyscan_8c_a472b7892c6d4e74a9e7791118ee81a16}{{2.9.2.5}{46}}
\@writefile{toc}{\contentsline {subsubsection}{\numberline {2.9.2.6}set\discretionary {\unhbox \voidb@x \hbox {\relax \fontsize  {7}{8}\selectfont  $\leftarrow \joinrel  \rhook $}}{}{}\_\discretionary {\unhbox \voidb@x \hbox {\relax \fontsize  {7}{8}\selectfont  $\leftarrow \joinrel  \rhook $}}{}{}poly\discretionary {\unhbox \voidb@x \hbox {\relax \fontsize  {7}{8}\selectfont  $\leftarrow \joinrel  \rhook $}}{}{}\_\discretionary {\unhbox \voidb@x \hbox {\relax \fontsize  {7}{8}\selectfont  $\leftarrow \joinrel  \rhook $}}{}{}left\discretionary {\unhbox \voidb@x \hbox {\relax \fontsize  {7}{8}\selectfont  $\leftarrow \joinrel  \rhook $}}{}{}\_\discretionary {\unhbox \voidb@x \hbox {\relax \fontsize  {7}{8}\selectfont  $\leftarrow \joinrel  \rhook $}}{}{}bound()}{46}}
\newlabel{polyscan_8c_a167ff70b2a82e61180f23620b6183630}{{2.9.2.6}{46}}
\@writefile{toc}{\contentsline {subsubsection}{\numberline {2.9.2.7}set\discretionary {\unhbox \voidb@x \hbox {\relax \fontsize  {7}{8}\selectfont  $\leftarrow \joinrel  \rhook $}}{}{}\_\discretionary {\unhbox \voidb@x \hbox {\relax \fontsize  {7}{8}\selectfont  $\leftarrow \joinrel  \rhook $}}{}{}poly\discretionary {\unhbox \voidb@x \hbox {\relax \fontsize  {7}{8}\selectfont  $\leftarrow \joinrel  \rhook $}}{}{}\_\discretionary {\unhbox \voidb@x \hbox {\relax \fontsize  {7}{8}\selectfont  $\leftarrow \joinrel  \rhook $}}{}{}res()}{46}}
\gdef \LT@xxxiii {\LT@entry 
    {3}{17.8039pt}\LT@entry 
    {3}{151.24916pt}}
\gdef \LT@xxxiv {\LT@entry 
    {3}{17.8039pt}\LT@entry 
    {3}{154.75015pt}}
\newlabel{polyscan_8c_a2f1c593cc09d34e056efe8a1d7d9b436}{{2.9.2.7}{47}}
\@writefile{toc}{\contentsline {subsubsection}{\numberline {2.9.2.8}set\discretionary {\unhbox \voidb@x \hbox {\relax \fontsize  {7}{8}\selectfont  $\leftarrow \joinrel  \rhook $}}{}{}\_\discretionary {\unhbox \voidb@x \hbox {\relax \fontsize  {7}{8}\selectfont  $\leftarrow \joinrel  \rhook $}}{}{}poly\discretionary {\unhbox \voidb@x \hbox {\relax \fontsize  {7}{8}\selectfont  $\leftarrow \joinrel  \rhook $}}{}{}\_\discretionary {\unhbox \voidb@x \hbox {\relax \fontsize  {7}{8}\selectfont  $\leftarrow \joinrel  \rhook $}}{}{}right\discretionary {\unhbox \voidb@x \hbox {\relax \fontsize  {7}{8}\selectfont  $\leftarrow \joinrel  \rhook $}}{}{}\_\discretionary {\unhbox \voidb@x \hbox {\relax \fontsize  {7}{8}\selectfont  $\leftarrow \joinrel  \rhook $}}{}{}bound()}{47}}
\newlabel{polyscan_8c_adfaf3b75bce267ff04e146a22e0c4c53}{{2.9.2.8}{47}}
\@writefile{toc}{\contentsline {subsubsection}{\numberline {2.9.2.9}set\discretionary {\unhbox \voidb@x \hbox {\relax \fontsize  {7}{8}\selectfont  $\leftarrow \joinrel  \rhook $}}{}{}\_\discretionary {\unhbox \voidb@x \hbox {\relax \fontsize  {7}{8}\selectfont  $\leftarrow \joinrel  \rhook $}}{}{}poly\discretionary {\unhbox \voidb@x \hbox {\relax \fontsize  {7}{8}\selectfont  $\leftarrow \joinrel  \rhook $}}{}{}\_\discretionary {\unhbox \voidb@x \hbox {\relax \fontsize  {7}{8}\selectfont  $\leftarrow \joinrel  \rhook $}}{}{}top\discretionary {\unhbox \voidb@x \hbox {\relax \fontsize  {7}{8}\selectfont  $\leftarrow \joinrel  \rhook $}}{}{}\_\discretionary {\unhbox \voidb@x \hbox {\relax \fontsize  {7}{8}\selectfont  $\leftarrow \joinrel  \rhook $}}{}{}bound()}{47}}
\gdef \LT@xxxv {\LT@entry 
    {3}{27.8117pt}\LT@entry 
    {3}{256.94272pt}}
\newlabel{polyscan_8c_a3c9c4d6bf2fc1e765c98b386df21e2a3}{{2.9.2.9}{48}}
\@writefile{toc}{\contentsline {subsubsection}{\numberline {2.9.2.10}update\discretionary {\unhbox \voidb@x \hbox {\relax \fontsize  {7}{8}\selectfont  $\leftarrow \joinrel  \rhook $}}{}{}\_\discretionary {\unhbox \voidb@x \hbox {\relax \fontsize  {7}{8}\selectfont  $\leftarrow \joinrel  \rhook $}}{}{}extremes()}{48}}
\@writefile{toc}{\contentsline {subsection}{\numberline {2.9.3}Variable Documentation}{48}}
\newlabel{polyscan_8c_adb6ae60760a253ba1af6a5efaf008f64}{{2.9.3}{48}}
\@writefile{toc}{\contentsline {subsubsection}{\numberline {2.9.3.1}in\discretionary {\unhbox \voidb@x \hbox {\relax \fontsize  {7}{8}\selectfont  $\leftarrow \joinrel  \rhook $}}{}{}Interval}{48}}
